^C:\USERS\ERIC HU\DOCUMENTS\VISUAL STUDIO 2010\PROJECTS\GLUT\HU_TRIANGLE_LETTER\GLSL.CPP
/c /ZI /nologo /W3 /WX- /Od /Oy- /D WIN32 /D _DEBUG /D _CONSOLE /D _UNICODE /D UNICODE /Gm /EHsc /RTC1 /MDd /GS /fp:precise /Zc:wchar_t /Zc:forScope /Fo"Debug\\" /Fd"Debug\vc100.pdb" /Gd /TP /analyze- /errorReport:prompt C:\USERS\ERIC HU\DOCUMENTS\VISUAL STUDIO 2010\PROJECTS\GLUT\HU_TRIANGLE_LETTER\GLSL.CPP
^C:\USERS\ERIC HU\DOCUMENTS\VISUAL STUDIO 2010\PROJECTS\GLUT\HU_TRIANGLE_LETTER\HU_ASSIGNMENT3_ROTATING_TETRAHEDRON.CPP
/c /ZI /nologo /W3 /WX- /Od /Oy- /D WIN32 /D _DEBUG /D _CONSOLE /D _UNICODE /D UNICODE /Gm /EHsc /RTC1 /MDd /GS /fp:precise /Zc:wchar_t /Zc:forScope /Fo"Debug\\" /Fd"Debug\vc100.pdb" /Gd /TP /analyze- /errorReport:prompt C:\USERS\ERIC HU\DOCUMENTS\VISUAL STUDIO 2010\PROJECTS\GLUT\HU_TRIANGLE_LETTER\HU_ASSIGNMENT3_ROTATING_TETRAHEDRON.CPP
^C:\USERS\ERIC HU\DOCUMENTS\VISUAL STUDIO 2010\PROJECTS\GLUT\HU_TRIANGLE_LETTER\MESHCAMERA.CPP
/c /ZI /nologo /W3 /WX- /Od /Oy- /D WIN32 /D _DEBUG /D _CONSOLE /D _UNICODE /D UNICODE /Gm /EHsc /RTC1 /MDd /GS /fp:precise /Zc:wchar_t /Zc:forScope /Fo"Debug\\" /Fd"Debug\vc100.pdb" /Gd /TP /analyze- /errorReport:prompt C:\USERS\ERIC HU\DOCUMENTS\VISUAL STUDIO 2010\PROJECTS\GLUT\HU_TRIANGLE_LETTER\MESHCAMERA.CPP
^C:\USERS\ERIC HU\DOCUMENTS\VISUAL STUDIO 2010\PROJECTS\GLUT\HU_TRIANGLE_LETTER\WIDGETS.CPP
/c /ZI /nologo /W3 /WX- /Od /Oy- /D WIN32 /D _DEBUG /D _CONSOLE /D _UNICODE /D UNICODE /Gm /EHsc /RTC1 /MDd /GS /fp:precise /Zc:wchar_t /Zc:forScope /Fo"Debug\\" /Fd"Debug\vc100.pdb" /Gd /TP /analyze- /errorReport:prompt C:\USERS\ERIC HU\DOCUMENTS\VISUAL STUDIO 2010\PROJECTS\GLUT\HU_TRIANGLE_LETTER\WIDGETS.CPP
^C:\USERS\ERIC HU\DOCUMENTS\VISUAL STUDIO 2010\PROJECTS\GLUT\HU_TRIANGLE_LETTER\MESH.CPP
/c /ZI /nologo /W3 /WX- /Od /Oy- /D WIN32 /D _DEBUG /D _CONSOLE /D _UNICODE /D UNICODE /Gm /EHsc /RTC1 /MDd /GS /fp:precise /Zc:wchar_t /Zc:forScope /Fo"Debug\\" /Fd"Debug\vc100.pdb" /Gd /TP /analyze- /errorReport:prompt C:\USERS\ERIC HU\DOCUMENTS\VISUAL STUDIO 2010\PROJECTS\GLUT\HU_TRIANGLE_LETTER\MESH.CPP
^C:\USERS\ERIC HU\DOCUMENTS\VISUAL STUDIO 2010\PROJECTS\GLUT\HU_TRIANGLE_LETTER\DRAW.CPP
/c /ZI /nologo /W3 /WX- /Od /Oy- /D WIN32 /D _DEBUG /D _CONSOLE /D _UNICODE /D UNICODE /Gm /EHsc /RTC1 /MDd /GS /fp:precise /Zc:wchar_t /Zc:forScope /Fo"Debug\\" /Fd"Debug\vc100.pdb" /Gd /TP /analyze- /errorReport:prompt C:\USERS\ERIC HU\DOCUMENTS\VISUAL STUDIO 2010\PROJECTS\GLUT\HU_TRIANGLE_LETTER\DRAW.CPP
^C:\USERS\ERIC HU\DOCUMENTS\VISUAL STUDIO 2010\PROJECTS\GLUT\HU_TRIANGLE_LETTER\CAMERA.CPP
/c /ZI /nologo /W3 /WX- /Od /Oy- /D WIN32 /D _DEBUG /D _CONSOLE /D _UNICODE /D UNICODE /Gm /EHsc /RTC1 /MDd /GS /fp:precise /Zc:wchar_t /Zc:forScope /Fo"Debug\\" /Fd"Debug\vc100.pdb" /Gd /TP /analyze- /errorReport:prompt C:\USERS\ERIC HU\DOCUMENTS\VISUAL STUDIO 2010\PROJECTS\GLUT\HU_TRIANGLE_LETTER\CAMERA.CPP
^C:\USERS\ERIC HU\DOCUMENTS\VISUAL STUDIO 2010\PROJECTS\GLUT\HU_TRIANGLE_LETTER\HU_DRAW_TREE.CPP
/c /ZI /nologo /W3 /WX- /Od /Oy- /D WIN32 /D _DEBUG /D _CONSOLE /D _UNICODE /D UNICODE /Gm /EHsc /RTC1 /MDd /GS /fp:precise /Zc:wchar_t /Zc:forScope /Fo"Debug\\" /Fd"Debug\vc100.pdb" /Gd /TP /analyze- /errorReport:prompt C:\USERS\ERIC HU\DOCUMENTS\VISUAL STUDIO 2010\PROJECTS\GLUT\HU_TRIANGLE_LETTER\HU_DRAW_TREE.CPP
